"Product Name"," Product Code"," Expected"," Counted"
"SBR Merah Hati Silver",201,4,
"SBR Merah Hati Gold",202,6,
"SBR Cream Silver",203,1,
"SBR Cream Gold",204,0,
"SBR Magenta Gold",205,3,
"SBR Magenta Silver",206,0,
"SBR Royal Blue Silver",207,0,
"SBR Royal Blue Gold",208,0,
"SBR Champagne Silver",209,0,
"SBR Champagne Gold",210,2,
"SBR Pink Gold",211,6,
"SBR Pink Silver",212,14,
"SBR Hot Pink Silver",213,0,
"SBR Hot Pink Gold",214,3,
"SBR Grey Silver",215,6,
"SBR Grey Gold",216,1,
"SBR Orange Gold",217,1,
"SBR Orange Silver",218,0,
"SBR Dusty Blue Silver",219,5,
"SBR Dark Coklat Silver",220,2,
"SBR Dark Coklat Gold",221,1,
"SBR Dark Purple Silver",222,4,
"SBR Dark Purple Gold",223,12,
"SBR Maroon Silver",224,5,
"SBR Maroon Gold",225,0,
"SBR Apple Green Silver",226,4,
"SBR Blue Turqoise Silver",227,31,
"SBR Blue Turqoise Gold",228,2,
"SBT Baby Blue Silver",103,0,
"SBT Baby Blue Gold",104,2,
"SBT Baby Blue Rose",105,15,
"SBT Navy Blue Silver",106,0,
"SBT Navy Blue Gold",107,14,
"SBT Blue Black Silver",108,6,
"SBT Blue Black Gold",109,4,
"SBT Blue Turqoise Silver",110,38,
"SBT Blue Turqoise Gold",111,24,
"Other - Mix Kain SBT",199,4419,
"SBT Magenta Silver",112,81,
"SBT Magenta Gold",113,34,
"SBT Light Purple Silver",114,120,
"SBT Light Purple Gold",115,9,
"SBT Champagne Silver",116,0,
"SBT Champagne Gold",117,0,
"SBT Grey Silver",118,8,
"SBT Grey Gold",119,9,
"SBT Emerald green Silver",120,-2,
"SBT Dark Emerald Green Silver",121,17,
"SBT Dark Emerald Green Gold",122,39,
"SBT Dark Coklat Silver",123,76,
"SBT Coklat Silver",125,8,
"SBT Maroon Silver",126,14,
"SBT Merah Hati Silver",128,47,
"SBT Merah Hati Gold",129,8,
"SBT Teal Green Silver",130,1,
"SBT Teal Green Gold",131,13,
"SBT Mint Green Silver",132,0,
"SBT Kuning Silver",134,67,
"SBT Kuning Gold",135,4,
"SBT Royal Blue Silver",136,57,
"SBT Royal Blue Gold",137,21,
"SBT Orange Gold",138,30,
"SBT Orange Silver",139,46,
"SBT Dark Purple Silver",140,39,
"SBT Dark Purple Gold",141,5,
"SBT Light Coklat Gold",142,14,
"SBT Cream Silver",143,83,
"SBT Cream Gold",144,1,
"SBT Dusty Olive Silver",145,20,
"SBT Baby Pink Silver",146,4,
"SBT Baby Pink Gold",147,6,
"SBT Pink Belacan Silver",148,15,
"SBT Olive Green Silver",149,3,
"SBT Dusty Purple Silver",150,8,
"SBT Dusty Purple Gold",151,1,
"SBT Pink Silver",152,14,
"SBT Dusty Peach Silver",153,22,
"SBT Peach Silver",154,28,
"SBT Mustard Gold",155,4,
"SBT Dusty Blue Silver",156,7,
"SBT Shocking Pink Silver",157,6,
"3D Other Mix",499,6,
"SM Other Mix ",399,210,
"SM Pink Silver",301,12,
"SM Baby pink Silver",302,10,
"SM Dark Emerald Green Silver",303,8,
"SM Hot Pink Silver",304,0,
"SM Emerald Green Silver",305,1,
"SM Baby Blue Silver",307,3,
"SM Baby Blue Gold",308,1,
"SM Kuning Silver",309,1,
"SM Blue Black Silver",310,1,
"SM Navy Blue Silver",311,23,
"SM Dark Emerald Green Gold",312,1,
"SM Olive Green Silver",313,14,
"SM Champagne Silver",314,4,
"SM Mint Silver",315,2,
"SM Dark Coklat Silver",316,4,
"SM Ppl Manggis Silver",317,3,
"SM Maroon Silver",318,8,
"SM Light Purple Silver",320,6,
"SM Dark Purple Silver",321,20,
"SBT Black Silver",101,2,
"SM Midnight Blue Silver",326,1,
