"Product Name"," Product Code"," Expected"," Counted"
Plain/Masala,14575632,9986,
Plain/Masala,14575632,9995,
Plain/Masala,14575632,10200,
Chatpata,89384562,9998,
Chatpata,89384562,10000,
Chatpata,89384562,1000,
Plain,92568323,998,
Plain,92568323,10000,
"Deal 1 (Crispy Garlic Mayo Burger"," Chicken Roll"," Fries )",96947721,96,
